{
    "id": "redbar",
    "name": "Redbar",
    "author": "Miniwa",
    "description": [
        
        "Changes the color of your energy bar based on your health!"
        
    ],
    "category": "Gameplay",
    "gameVersion": "1.8.0",
    "version": "1.1.2",
    "platform": "Quest",
    "components": [
        {
            "type": "HookMod",
            "installAction": {
                "installLibraryFile": "libredbar.so"
            },
            "uninstallAction": {
                "removeLibraryFile": "libredbar.so"
            }
        }
    ]
}
